%YAML 1.1
%TAG !u! tag:unity3d.com,2011:
--- !u!114 &11400000
MonoBehaviour:
  m_ObjectHideFlags: 0
  m_CorrespondingSourceObject: {fileID: 0}
  m_PrefabInstance: {fileID: 0}
  m_PrefabAsset: {fileID: 0}
  m_GameObject: {fileID: 0}
  m_Enabled: 1
  m_EditorHideFlags: 0
  m_Script: {fileID: 11500000, guid: 21667c5c1ee7a4111a1243f78270d1dd, type: 3}
  m_Name: New Float Data
  m_EditorClassIdentifier: 
  value: 0
  minValueEvent:
    m_PersistentCalls:
      m_Calls: []
  maxValueEvent:
    m_PersistentCalls:
      m_Calls: []
  updateValueEvent:
    m_PersistentCalls:
      m_Calls: []
